math Homotopiaren hasiera...
argumentoak: n: 1609 eta nhelb: 0x7fff417a4f00
I' ll try to walk:  step= 0,  from t = 29.8047 to t= 29.8077 with dt = 0.0029882 

initial rest_norm = 0.0031761908521074, with t = 29.807709
 F(bal0) =
Jac = 5324.9218513488667668in the iterations... 0 iteration
 end appox.
new |F(X)| = 5.37655e-05
in the iterations... 1 iteration
 end appox.
new |F(X)| = 1.64177e-07
the new root is:

mathHomotopia: root found (else way). Now to compute new jacobian the jacobian for next step:
 STEP 0 .... rootfound = 1 ...
I' ll try to walk:  step= 1,  from t = 29.8077 to t= 29.8197 with dt = 0.0119528 

initial rest_norm = 0.0118652184559484, with t = 29.819662
 F(bal0) =
Jac = 5344.5483723058114265in the iterations... 0 iteration
 end appox.
new |F(X)| = 0.000867859
in the iterations... 1 iteration
 end appox.
new |F(X)| = 1.105e-05
in the iterations... 2 iteration
 end appox.
new |F(X)| = 8.38003e-08
the new root is:

mathHomotopia: root found (else way). Now to compute new jacobian the jacobian for next step:
 STEP 1 .... rootfound = 1 ...
I' ll try to walk:  step= 2,  from t = 29.8197 to t= 29.8484 with dt = 0.0287357 

initial rest_norm = 0.0285315944620007, with t = 29.848398
 F(bal0) =
Jac = 5423.0017551598002683in the iterations... 0 iteration
 end appox.
new |F(X)| = 0.00508849
in the iterations... 1 iteration
 end appox.
new |F(X)| = 0.000154589
in the iterations... 2 iteration
 end appox.
new |F(X)| = 2.60076e-06
the new root is:

mathHomotopia: root found (else way). Now to compute new jacobian the jacobian for next step:
 STEP 2 .... rootfound = 1 ...
I' ll try to walk:  step= 3,  from t = 29.8484 to t= 29.9175 with dt = 0.0690834 

initial rest_norm = 0.0686300734108860, with t = 29.917481
 F(bal0) =
Jac = 5614.7285353328943529in the iterations... 0 iteration
 end appox.
new |F(X)| = 0.0304369
in the iterations... 1 iteration
 end appox.
new |F(X)| = 0.00218805
in the iterations... 2 iteration
 end appox.
new |F(X)| = 7.44331e-05
the new root is:

mathHomotopia: root found (else way). Now to compute new jacobian the jacobian for next step:
 STEP 3 .... rootfound = 1 ...
I' ll try to walk:  step= 4,  from t = 29.9175 to t= 30.0836 with dt = 0.166083 

initial rest_norm = 0.1652220770732263, with t = 30.083565
 F(bal0) =
Jac = 6093.2118649533176722in the iterations... 0 iteration
 end appox.
new |F(X)| = 0.190827
in the iterations... 1 iteration
 end appox.
new |F(X)| = 0.0320072
in the iterations... 2 iteration
 end appox.
new |F(X)| = 0.00196862
in the iterations... 3 iteration
 end appox.
new |F(X)| = 0.000418186
the new root is:

mathHomotopia: root found (else way). Now to compute new jacobian the jacobian for next step:
 STEP 4 .... rootfound = 1 ...
I' ll try to walk:  step= 5,  from t = 30.0836 to t= 30.3556 with dt = 0.272027 

initial rest_norm = 0.2720154270997762, with t = 30.355592
 F(bal0) =
Jac = 7334.2560010099796273in the iterations... 0 iteration
 end appox.
new |F(X)| = 0.577951
in the iterations... 1 iteration
 end appox.
new |F(X)| = 0.158638
in the iterations... 2 iteration
 end appox.
new |F(X)| = 0.0184124
in the iterations... 3 iteration
 end appox.
new |F(X)| = 0.00927097
in the iterations... 4 iteration
 end appox.
new |F(X)| = 0.00909996
in the iterations... 5 iteration
 end appox.
new |F(X)| = 0.00172744
the new root is:

mathHomotopia: root found (else way). Now to compute new jacobian the jacobian for next step:
 STEP 5 .... rootfound = 1 ...
I' ll try to walk:  step= 6,  from t = 30.3556 to t= 30.6591 with dt = 0.303551 

initial rest_norm = 0.3066560610094188, with t = 30.659142
 F(bal0) =
Jac = 9596.7613908451439784in the iterations... 0 iteration
 end appox.
new |F(X)| = 0.76992
in the iterations... 1 iteration
 end appox.
new |F(X)| = 0.238404
in the iterations... 2 iteration
 end appox.
new |F(X)| = 0.0395962
in the iterations... 3 iteration
 end appox.
new |F(X)| = 0.0247671
in the iterations... 4 iteration
 end appox.
new |F(X)| = 0.0158529
in the iterations... 5 iteration
 end appox.
new |F(X)| = 0.0033179
the new root is:

mathHomotopia: root found (else way). Now to compute new jacobian the jacobian for next step:
 STEP 6 .... rootfound = 1 ...
I' ll try to walk:  step= 7,  from t = 30.6591 to t= 30.9979 with dt = 0.338727 

initial rest_norm = 0.3451542983556868, with t = 30.997870
 F(bal0) =
Jac = 12299.5615050357209839in the iterations... 0 iteration
 end appox.
new |F(X)| = 0.945779
in the iterations... 1 iteration
 end appox.
new |F(X)| = 0.305713
in the iterations... 2 iteration
 end appox.
new |F(X)| = 0.0531056
in the iterations... 3 iteration
 end appox.
new |F(X)| = 0.0299333
in the iterations... 4 iteration
 end appox.
new |F(X)| = 0.00886503
the new root is:

mathHomotopia: root found (else way). Now to compute new jacobian the jacobian for next step:
 STEP 7 .... rootfound = 1 ...
I' ll try to walk:  step= 8,  from t = 30.9979 to t= 31 with dt = 0.0021303 

initial rest_norm = 0.0098184936139928, with t = 31.000000
 F(bal0) =
Jac = 15291.5155297753954073in the iterations... 0 iteration
 end appox.
new |F(X)| = 0.000201995
in the iterations... 1 iteration
 end appox.
new |F(X)| = 1.60395e-06
the new root is:

mathHomotopia: root found (else way). Now to compute new jacobian the jacobian for next step:
 STEP 8 .... rootfound = 1 ...

initial rest_norm = 0.0000016039462928, with t = 31.000000
 F(bal0) =
Jac = 15245.9147350458169967in the iterations... 0 iteration
 end appox.
new |F(X)| = 3.09023e-13
in the iterations... 1 iteration
 end appox.
new |F(X)| = 7.99833e-14
the new root is:

hondarra bukaeran: ||F(x)|| =7.99833e-14, t=31 
0.991328645998,0.991317797582,0.991285109127,0.991230144929,0.991152173986,0.991050154803,0.990922723125,0.990768166578,0.990584401474,0.990368935236,0.990118829669,0.989830647813,0.989500399504,0.989123467402,0.988694528355,0.988207450477,0.987655180247,0.98702959803,0.986321355144,0.98551966792,0.984612079632,0.983584161092,0.982419156593,0.981097538416,0.979596468778,0.977889119639,0.975943834793,0.973723062388,0.971182015711,0.968266951424,0.964912975618,0.961041201873,0.956555097301,0.95133575669,0.945235885946,0.938072280365,0.92961694165,0.919587765369,0.907641915193,0.893379479756,0.876373094348,0.856247445537,0.832824020918,0.806288884159,0.777252437598,0.746594567053,0.715187515357,0.683697369359,0.652538656692,0.621921558967,0.591919668866,0.562525530856,0.533688266259,0.505336904575,0.477394086293,0.449783727767,0.4224349822,0.395283987885,0.368274298089,0.341356572659,0.314487867629,0.287630755811,0.260752399952,0.233823672238,0.206818353889,0.179712449135,0.152483610269,0.125110682198,0.0975733483565,0.0698518757538,0.0419269362518,0.013779498171,-0.0146092349768,-0.0432578450269,-0.0721847003806,-0.10140794298,-0.130945478955,-0.160814974461,-0.191033868221,-0.221619394498,-0.252588615932,-0.283958444452,-0.315745627692,-0.347966651233,-0.380637497381,-0.413773166121,-0.447386844527,-0.48148856852,-0.51608319538,-0.551167463369,-0.586725896872,-0.622725294902,-0.65910756098,-0.695780674325,-0.732607712074,-0.769393996188,-0.80587270006,-0.841689589292,-0.876388012661,-0.909395754763,-0.94001588829,-0.967424215914,-0.990676178988,-1.00872606928,-1.02046088693,-1.02475010294,-1.0205108854,-1.00678609378,-0.982829796058,-0.948192603575,-0.902797293115,-0.8469945206,-0.781589362696,-0.707832078713,-0.627370645759,-0.542167640466,-0.454389027341,-0.36627636933,-0.280016119424,-0.197619567872,-0.120824823174,-0.051028434995,0.0107502256286,0.0638730574745,0.108060481504,0.143348717944,0.170034740157,0.188616165172,0.199732111524,0.204109406083,0.202516799943,0.195728332965,0.184495803463,0.169529511643,0.151486012016,0.130961467785,0.108489248231,0.084540574932,0.0595272290308,0.0338055468725,0.00768112192855,-0.0185862038149,-0.044777347322,-0.0707091763638,-0.0962299991758,-0.121215410581,-0.145564519723,-0.169196559813,-0.192047868809,-0.214069221019,-0.235223488734,-0.255483611102,-0.274830850818,-0.293253319955,-0.310744760972,-0.32730357052,-0.342932058636,-0.357635937714,-0.371424040519,-0.384308268243,-0.396303774125,-0.40742938951,-0.417708302917,-0.427169003045,-0.435846498631,-0.443783826251,-0.451033855975,-0.457661398864,-0.463745613545,-0.469382696131,-0.47468882189,-0.479803282839,-0.484891735591,-0.490149432928,-0.495804263106,-0.502119358041,-0.509394958288,-0.517969136459,-0.528216887301,-0.540546994815,-0.555395997742,-0.573218507798,-0.594473116588,-0.619603186324,-0.649011997794,-0.683032067429,-0.721888985768,-0.76566089479,-0.81423570594,-0.867269303363,-0.924149150659,-0.983968716287,-1.04551867891,-1.10730066367,-1.16756802779,-1.22439582225,-1.27577859372,-1.31975053328,-1.35451828475,-1.3785933413,-1.39090923063,-1.39090923063,-1.3785933413,-1.35451828475,-1.31975053328,-1.27577859372,-1.22439582225,-1.16756802779,-1.10730066367,-1.04551867891,-0.983968716287,-0.924149150659,-0.867269303363,-0.81423570594,-0.76566089479,-0.721888985768,-0.683032067429,-0.649011997794,-0.619603186324,-0.594473116588,-0.573218507798,-0.555395997742,-0.540546994815,-0.528216887301,-0.517969136459,-0.509394958288,-0.502119358041,-0.495804263106,-0.490149432928,-0.484891735591,-0.479803282839,-0.47468882189,-0.469382696131,-0.463745613545,-0.457661398864,-0.451033855975,-0.443783826251,-0.435846498631,-0.427169003045,-0.417708302917,-0.40742938951,-0.396303774125,-0.384308268243,-0.371424040519,-0.357635937714,-0.342932058636,-0.32730357052,-0.310744760972,-0.293253319955,-0.274830850818,-0.255483611102,-0.235223488734,-0.214069221019,-0.192047868809,-0.169196559813,-0.145564519723,-0.121215410581,-0.0962299991758,-0.0707091763638,-0.044777347322,-0.0185862038149,0.00768112192854,0.0338055468725,0.0595272290308,0.0845405749319,0.108489248231,0.130961467785,0.151486012016,0.169529511643,0.184495803463,0.195728332965,0.202516799943,0.204109406083,0.199732111524,0.188616165172,0.170034740157,0.143348717944,0.108060481504,0.0638730574745,0.0107502256286,-0.051028434995,-0.120824823174,-0.197619567872,-0.280016119424,-0.36627636933,-0.454389027341,-0.542167640466,-0.627370645759,-0.707832078713,-0.781589362696,-0.8469945206,-0.902797293115,-0.948192603575,-0.982829796058,-1.00678609378,-1.0205108854,-1.02475010294,-1.02046088693,-1.00872606928,-0.990676178988,-0.967424215914,-0.94001588829,-0.909395754763,-0.876388012661,-0.841689589292,-0.80587270006,-0.769393996188,-0.732607712074,-0.695780674325,-0.65910756098,-0.622725294902,-0.586725896872,-0.551167463369,-0.51608319538,-0.48148856852,-0.447386844527,-0.413773166121,-0.380637497381,-0.347966651233,-0.315745627692,-0.283958444452,-0.252588615932,-0.221619394498,-0.191033868221,-0.160814974461,-0.130945478955,-0.10140794298,-0.0721847003806,-0.0432578450269,-0.0146092349768,0.013779498171,0.0419269362518,0.0698518757538,0.0975733483566,0.125110682198,0.152483610269,0.179712449135,0.206818353889,0.233823672238,0.260752399952,0.287630755811,0.314487867629,0.341356572659,0.368274298089,0.395283987885,0.4224349822,0.449783727767,0.477394086293,0.505336904575,0.533688266259,0.562525530856,0.591919668866,0.621921558967,0.652538656692,0.683697369359,0.715187515357,0.746594567053,0.777252437598,0.806288884159,0.832824020918,0.856247445537,0.876373094348,0.893379479756,0.907641915193,0.919587765369,0.92961694165,0.938072280365,0.945235885946,0.95133575669,0.956555097301,0.961041201873,0.964912975618,0.968266951424,0.971182015711,0.973723062388,0.975943834793,0.977889119639,0.979596468778,0.981097538416,0.982419156593,0.983584161092,0.984612079632,0.98551966792,0.986321355144,0.98702959803,0.987655180247,0.988207450477,0.988694528355,0.989123467402,0.989500399504,0.989830647813,0.990118829669,0.990368935236,0.990584401474,0.990768166578,0.990922723125,0.991050154803,0.991152173986,0.991230144929,0.991285109127,0.991317797582,2.82662159284e-28,-0.000401819673513,-0.000805085127386,-0.00121125181038,-0.00162179463299,-0.00203821819296,-0.00246206739595,-0.00289493896321,-0.00333849366579,-0.00379446994829,-0.00426469871152,-0.0047511200641,-0.00525580180303,-0.00578096054831,-0.00632898534135,-0.0069024647041,-0.00750421705815,-0.00813732550039,-0.00880517690948,-0.0095115062259,-0.0102604458043,-0.01105658016,-0.0119050054459,-0.0128113925526,-0.0137820512725,-0.0148239907185,-0.0159449680548,-0.0171535112366,-0.0184588933109,-0.0198710194087,-0.0214001652041,-0.0230564631524,-0.0248489706815,-0.0267840426441,-0.0288625596414,-0.0310752743053,-0.0333951111624,-0.0357646441968,-0.0380763856768,-0.0401436688269,-0.0416632057205,-0.0421815377577,-0.0410996942409,-0.0377652746829,-0.0316566001582,-0.0225563799252,-0.0105881398543,0.00388265727255,0.0203814302839,0.03842020185,0.0575468152704,0.077363487668,0.0975298469794,0.1177593921,0.137813676151,0.157496095777,0.176646003297,0.195133391585,0.212854181762,0.229726090231,0.245685013372,0.260681882554,0.274679933488,0.287652353849,0.299580267906,0.310451033711,0.320256823391,0.32899347107,0.336659568247,0.343255798663,0.348784500616,0.353249455736,0.356655899786,0.359010761188,0.360323129924,0.360604968586,0.359872074138,0.358145306746,0.355452097851,0.351828255249,0.347320076671,0.341986785267,0.335903290168,0.329163271216,0.321882569779,0.31420285381,0.30629549654,0.298365579257,0.290655881575,0.283450671127,0.27707903153,0.271917386544,0.268390775183,0.26697232396,0.268180241621,0.272571554738,0.280731717248,0.293259206603,0.310744291485,0.333741381477,0.36273478547,0.398098365394,0.440050477919,0.488606728761,0.543534311812,0.604312900322,0.670107932478,0.739762395831,0.811812561551,0.884531367439,0.956000285267,1.02420680456,1.08716064782,1.1430182557,1.19020272998,1.22750594878,1.25416124852,1.26987872595,1.27484019647,1.26965620731,1.25529222041,1.23297433566,1.20408627105,1.17006876764,1.13233052234,1.09217679601,1.05075865008,1.00904289568,0.967800646078,0.927610998973,0.888875797046,0.851841477873,0.816624513087,0.783237655326,0.751614982544,0.721634446044,0.693137219756,0.665943602564,0.639865541384,0.614716049529,0.590315908222,0.566498090461,0.543110346849,0.520016367043,0.497095882325,0.474244022403,0.45137018148,0.428396597528,0.405256799112,0.381894035383,0.358259769193,0.334312288336,0.310015467119,0.285337696751,0.260250989761,0.234730257779,0.20875275493,0.182297678089,0.155345911882,0.127879908117,0.0998836881352,0.0713429600399,0.0422453430788,0.0125806962789,-0.0176584496543,-0.0484763514975,-0.079873393804,-0.11184529084,-0.144382122818,-0.177467165319,-0.211075458176,-0.245172041476,-0.279709769389,-0.314626591131,-0.349842171896,-0.385253711176,-0.420730813716,-0.45610927959,-0.491183720576,-0.525698984764,-0.559340499547,-0.59172383045,-0.622384015927,-0.650765571638,-0.676214458018,-0.697973735077,-0.715185038645,-0.726898308991,-0.732092276377,-0.729707916927,-0.718696312191,-0.698080981121,-0.667032809657,-0.624953309547,-0.571559402913,-0.506960708281,-0.431718966118,-0.346879324219,-0.253965078135,-0.154931155081,-0.0520767500065,0.0520767500065,0.154931155081,0.253965078135,0.346879324219,0.431718966118,0.506960708281,0.571559402913,0.624953309547,0.667032809657,0.698080981121,0.718696312191,0.729707916927,0.732092276377,0.726898308991,0.715185038645,0.697973735077,0.676214458018,0.650765571638,0.622384015927,0.59172383045,0.559340499547,0.525698984764,0.491183720576,0.45610927959,0.420730813716,0.385253711176,0.349842171896,0.314626591131,0.279709769389,0.245172041476,0.211075458176,0.177467165319,0.144382122818,0.11184529084,0.079873393804,0.0484763514975,0.0176584496543,-0.0125806962789,-0.0422453430788,-0.0713429600399,-0.0998836881352,-0.127879908117,-0.155345911882,-0.182297678089,-0.20875275493,-0.234730257779,-0.260250989761,-0.285337696751,-0.310015467119,-0.334312288336,-0.358259769193,-0.381894035383,-0.405256799112,-0.428396597528,-0.45137018148,-0.474244022403,-0.497095882325,-0.520016367043,-0.543110346849,-0.566498090461,-0.590315908222,-0.614716049529,-0.639865541384,-0.665943602564,-0.693137219756,-0.721634446044,-0.751614982544,-0.783237655326,-0.816624513087,-0.851841477873,-0.888875797046,-0.927610998973,-0.967800646078,-1.00904289568,-1.05075865008,-1.09217679601,-1.13233052234,-1.17006876764,-1.20408627105,-1.23297433566,-1.25529222041,-1.26965620731,-1.27484019647,-1.26987872595,-1.25416124852,-1.22750594878,-1.19020272998,-1.1430182557,-1.08716064782,-1.02420680456,-0.956000285267,-0.884531367439,-0.811812561551,-0.739762395831,-0.670107932478,-0.604312900322,-0.543534311812,-0.488606728761,-0.440050477919,-0.398098365394,-0.36273478547,-0.333741381477,-0.310744291485,-0.293259206603,-0.280731717248,-0.272571554739,-0.268180241621,-0.26697232396,-0.268390775183,-0.271917386544,-0.27707903153,-0.283450671127,-0.290655881575,-0.298365579257,-0.30629549654,-0.31420285381,-0.321882569779,-0.329163271216,-0.335903290168,-0.341986785267,-0.347320076671,-0.351828255249,-0.355452097851,-0.358145306746,-0.359872074138,-0.360604968586,-0.360323129924,-0.359010761188,-0.356655899786,-0.353249455736,-0.348784500616,-0.343255798663,-0.336659568247,-0.32899347107,-0.320256823391,-0.310451033711,-0.299580267906,-0.287652353849,-0.274679933488,-0.260681882554,-0.245685013372,-0.229726090231,-0.212854181762,-0.195133391585,-0.176646003297,-0.157496095777,-0.137813676151,-0.1177593921,-0.0975298469794,-0.077363487668,-0.0575468152704,-0.03842020185,-0.0203814302839,-0.00388265727255,0.0105881398543,0.0225563799252,0.0316566001582,0.0377652746829,0.0410996942409,0.0421815377577,0.0416632057205,0.0401436688269,0.0380763856768,0.0357646441968,0.0333951111624,0.0310752743053,0.0288625596414,0.0267840426441,0.0248489706815,0.0230564631524,0.0214001652041,0.0198710194087,0.0184588933109,0.0171535112366,0.0159449680548,0.0148239907185,0.0137820512725,0.0128113925526,0.0119050054459,0.01105658016,0.0102604458043,0.0095115062259,0.00880517690948,0.00813732550039,0.00750421705815,0.0069024647041,0.00632898534135,0.00578096054831,0.00525580180303,0.0047511200641,0.00426469871152,0.00379446994829,0.00333849366579,0.00289493896321,0.00246206739595,0.00203821819296,0.00162179463299,0.00121125181038,0.000805085127386,0.000401819673513,7.52812567216e-14,-0.142673315803,-0.283144498093,-0.419294859166,-0.549166803098,-0.671030456538,-0.783435365757,-0.885244724803,-0.975651461226,-1.05417687816,-1.12065406571,-1.17519900622,-1.2181729526,-1.25013957794,-1.27182023893,-1.28405011741,-1.28773741196,-1.28382708323,-1.27327000622,-1.25699789928,-1.23590390517,-1.21082848474,-1.18254999191,-1.15177930768,-1.11915777648,-1.08525783182,-1.0505856555,-1.01558541632,-0.980644634397,-0.946100436095,-0.912246489247,-0.879340643554,-0.847613370353,-0.817277393052,-0.788539083832,-0.761612659822,-0.736738591945,-0.71420819108,-0.694396230423,-0.677801624432,-0.66508880584,-0.657104894097,-0.654822324961,-0.659159945846,-0.670728961806,-0.689678391476,-0.715760861547,-0.74852681535,-0.787486284157,-0.832180361965,-0.882188181406,-0.937106540874,-0.996523759849,-1.0599964389,-1.12703151271,-1.19707378592,-1.26949853505,-1.34360878962,-1.41863698577,-1.49375080172,-1.56806297322,-1.64064486306,-1.71054342353,-1.77680106664,-1.83847776326,-1.89467454734,-1.94455743468,-1.98738068742,-2.02250829719,-2.04943261613,-2.06778916045,-2.07736681807,-2.07811292369,-2.07013297223,-2.05368503183,-2.02916922925,-1.99711292587,-1.95815242083,-1.91301213783,-1.86248232403,-1.80739626084,-1.7486079202,-1.68697085788,-1.62331898572,-1.55844967595,-1.49310948673,-1.42798262647,-1.36368215052,-1.30074376852,-1.2396220822,-1.18068902521,-1.12423428122,-1.07046746398,-1.019521891,-0.971459820378,-0.926279082155,-0.883921070201,-0.844280099608,-0.807214126243,-0.772556799692,-0.740130729166,-0.709761719014,-0.681293538121,-0.654602577257,-0.629611506096,-0.606300845659,-0.584717235236,-0.564977190311,-0.547265331339,-0.531826476815,-0.518951588705,-0.50895831018,-0.502167598756,-0.49887862703,-0.499344517411,-0.503751522126,-0.512203877874,-0.524715836188,-0.541211387865,-0.561531177562,-0.58544519724,-0.612669239879,-0.642882834411,-0.67574650096,-0.710916556437,-0.748056281951,-0.786842877909,-0.82697020724,-0.868147761643,-0.910096585165,-0.952543029261,-0.995211253088,-1.03781532456,-1.08005168322,-1.12159258755,-1.1620810354,-1.20112750099,-1.23830871771,-1.27316862913,-1.30522156267,-1.33395761502,-1.35885019724,-1.3793656299,-1.39497462752,-1.40516543215,-1.40945827833,-1.40742076883,-1.39868364928,-1.38295636997,-1.3600417542,-1.3298490388,-1.29240455165,-1.24785932552,-1.19649304847,-1.13871389216,-1.07505396114,-1.00616033001,-0.932781891067,-0.855752475455,-0.775970940767,-0.694379090788,-0.611938418712,-0.529606707142,-0.448315499949,-0.368949360866,-0.292327689136,-0.219189663458,-0.150182677052,-0.0858544017775,-0.0266484214189,0.0270968090477,0.07514605453,0.117362922312,0.153703546686,0.184208890493,0.208996195744,0.228250079164,0.242213698467,0.251180343557,0.255485711421,0.255501033538,0.251627115127,0.244289243915,0.233932807165,0.221019349098,0.20602268651,0.189424615836,0.171709680011,0.153358465797,0.134838968913,0.116595743043,0.099036825259,0.0825188252894,0.0673310217565,0.0536797901763,0.0416750805128,0.0313208897195,0.0225116151733,0.0150357945916,0.00858801293904,0.00278879277826,-0.00278879277827,-0.00858801293905,-0.0150357945917,-0.0225116151733,-0.0313208897195,-0.0416750805129,-0.0536797901763,-0.0673310217565,-0.0825188252894,-0.099036825259,-0.116595743043,-0.134838968913,-0.153358465797,-0.171709680011,-0.189424615836,-0.20602268651,-0.221019349098,-0.233932807165,-0.244289243915,-0.251627115127,-0.255501033538,-0.255485711421,-0.251180343557,-0.242213698467,-0.228250079164,-0.208996195744,-0.184208890493,-0.153703546686,-0.117362922312,-0.07514605453,-0.0270968090477,0.0266484214189,0.0858544017775,0.150182677052,0.219189663458,0.292327689136,0.368949360865,0.448315499949,0.529606707142,0.611938418712,0.694379090788,0.775970940767,0.855752475455,0.932781891067,1.00616033001,1.07505396114,1.13871389216,1.19649304847,1.24785932552,1.29240455165,1.3298490388,1.3600417542,1.38295636997,1.39868364928,1.40742076883,1.40945827833,1.40516543215,1.39497462752,1.3793656299,1.35885019724,1.33395761502,1.30522156267,1.27316862913,1.23830871771,1.20112750099,1.1620810354,1.12159258755,1.08005168322,1.03781532456,0.995211253088,0.952543029261,0.910096585165,0.868147761643,0.82697020724,0.786842877909,0.748056281951,0.710916556437,0.67574650096,0.642882834411,0.612669239879,0.58544519724,0.561531177562,0.541211387865,0.524715836188,0.512203877874,0.503751522126,0.499344517411,0.49887862703,0.502167598756,0.50895831018,0.518951588705,0.531826476815,0.547265331339,0.564977190311,0.584717235236,0.606300845659,0.629611506096,0.654602577257,0.681293538121,0.709761719014,0.740130729166,0.772556799692,0.807214126243,0.844280099608,0.883921070201,0.926279082155,0.971459820378,1.019521891,1.07046746398,1.12423428122,1.18068902521,1.2396220822,1.30074376852,1.36368215052,1.42798262647,1.49310948673,1.55844967595,1.62331898572,1.68697085788,1.7486079202,1.80739626084,1.86248232403,1.91301213783,1.95815242083,1.99711292587,2.02916922925,2.05368503183,2.07013297223,2.07811292369,2.07736681807,2.06778916045,2.04943261613,2.02250829719,1.98738068742,1.94455743468,1.89467454734,1.83847776326,1.77680106664,1.71054342353,1.64064486306,1.56806297322,1.49375080172,1.41863698577,1.34360878962,1.26949853505,1.19707378592,1.12703151271,1.0599964389,0.996523759849,0.937106540874,0.882188181406,0.832180361965,0.787486284157,0.74852681535,0.715760861547,0.689678391476,0.670728961806,0.659159945846,0.654822324961,0.657104894097,0.66508880584,0.677801624432,0.694396230423,0.71420819108,0.736738591945,0.761612659822,0.788539083832,0.817277393052,0.847613370353,0.879340643554,0.912246489247,0.946100436095,0.980644634397,1.01558541632,1.0505856555,1.08525783182,1.11915777648,1.15177930768,1.18254999191,1.21082848474,1.23590390517,1.25699789928,1.27327000622,1.28382708323,1.28773741196,1.28405011741,1.27182023893,1.25013957794,1.2181729526,1.17519900622,1.12065406571,1.05417687816,0.975651461226,0.885244724803,0.783435365757,0.671030456538,0.549166803098,0.419294859166,0.283144498093,0.142673315803,-1.66663646619,-1.65869983333,-1.63508791706,-1.5963841825,-1.54352723405,-1.47776313076,-1.40058456852,-1.31366174696,-1.218770227,-1.11772064439,-1.01229449253,-0.904189093544,-0.794973685496,-0.686057444175,-0.578669173609,-0.473847716458,-0.372441501029,-0.275115473645,-0.182363489186,-0.0945244236578,-0.0118003876708,0.0657242480368,0.13806408021,0.205314907084,0.267637508143,0.325243293546,0.378381991953,0.427331439542,0.472389441921,0.513867667719,0.552087494381,0.587377784835,0.620074573971,0.650522747898,0.679079799585,0.706121797513,0.732051467562,0.757307709535,0.782374073447,0.807779832956,0.834079805182,0.861790176345,0.891261034558,0.922511747847,0.955135956907,0.988380957364,1.0213508283,1.05317679623,1.08308164147,1.11037246399,1.13441300033,1.15460084783,1.17035539547,1.18111506554,1.1863412942,1.18552712304,1.1782089057,1.1639800102,1.14250562537,1.11353783258,1.07693013583,1.03265061218,0.980792864619,0.921583974215,0.855388747696,0.782709675146,0.704182219808,0.62056528363,0.532726978314,0.441626099124,0.348289984952,0.253789668537,0.159213411381,0.0656398045867,-0.0258883542484,-0.114388281532,-0.198958534265,-0.278796673263,-0.353212731726,-0.421638235892,-0.483630774035,-0.538874354304,-0.587175974596,-0.628458979126,-0.662753856118,-0.690187177011,-0.710969362401,-0.725381924606,-0.733764760794,-0.736503992801,-0.7340207505,-0.72676120769,-0.715188081029,-0.699773719217,-0.680994816884,-0.65932870565,-0.635251078657,-0.609234913347,-0.581750249851,-0.5532643828,-0.524241922619,-0.495144112723,-0.466426755088,-0.438536141474,-0.411902519234,-0.386930873118,-0.36398916318,-0.343394616294,-0.325399156932,-0.310175515267,-0.297805853718,-0.288274823683,-0.281468719783,-0.277181838312,-0.2751303126,-0.274972728515,-0.276335878339,-0.278843283082,-0.282143733251,-0.285937146184,-0.289995480595,-0.294177192562,-0.298434595005,-0.302814340205,-0.307451934614,-0.312561644544,-0.318423327414,-0.325367665327,-0.333761038535,-0.343990942663,-0.356452490486,-0.371536217495,-0.389617162486,-0.411045046748,-0.436135314539,-0.465160811176,-0.498343927325,-0.535849113617,-0.577775745446,-0.624151395905,-0.674925646234,-0.72996463527,-0.78904661219,-0.851858813198,-0.917996018731,-0.986961163916,-1.05816835765,-1.13094861736,-1.20455853779,-1.27819199036,-1.35099479312,-1.42208211409,-1.49055817947,-1.55553767427,-1.61616805707,-1.6716518871,-1.72126818908,-1.76439187712,-1.80051032169,-1.82923627783,-1.85031658312,-1.86363626972,-1.86921799129,-1.86721692473,-1.85791154233,-1.84169084747,-1.81903881016,-1.79051682216,-1.75674501403,-1.71838324447,-1.67611249438,-1.63061728913,-1.58256964493,-1.53261490326,-1.48135969232,-1.42936214612,-1.37712442455,-1.32508751605,-1.27362826649,-1.22305856181,-1.17362659117,-1.1255201263,-1.07887175997,-1.03376604431,-0.990248444684,-0.948335968306,-0.908029228408,-0.869325562207,-0.832232635787,-0.796781757472,-0.763039910048,-0.731119344482,-0.701183506053,-0.673448144655,-0.648176739467,-0.625669863128,-0.606248796892,-0.590234509321,-0.577923900241,-0.569565833054,-0.565339779971,-0.565339779971,-0.569565833054,-0.577923900241,-0.590234509321,-0.606248796892,-0.625669863128,-0.648176739467,-0.673448144655,-0.701183506053,-0.731119344482,-0.763039910048,-0.796781757472,-0.832232635787,-0.869325562207,-0.908029228408,-0.948335968306,-0.990248444684,-1.03376604431,-1.07887175997,-1.1255201263,-1.17362659117,-1.22305856181,-1.27362826649,-1.32508751605,-1.37712442455,-1.42936214612,-1.48135969232,-1.53261490326,-1.58256964493,-1.63061728913,-1.67611249438,-1.71838324447,-1.75674501403,-1.79051682216,-1.81903881016,-1.84169084747,-1.85791154233,-1.86721692473,-1.86921799129,-1.86363626972,-1.85031658312,-1.82923627783,-1.80051032169,-1.76439187712,-1.72126818908,-1.6716518871,-1.61616805707,-1.55553767427,-1.49055817947,-1.42208211409,-1.35099479312,-1.27819199036,-1.20455853779,-1.13094861736,-1.05816835765,-0.986961163916,-0.917996018731,-0.851858813198,-0.78904661219,-0.72996463527,-0.674925646234,-0.624151395905,-0.577775745446,-0.535849113618,-0.498343927325,-0.465160811176,-0.436135314539,-0.411045046748,-0.389617162486,-0.371536217495,-0.356452490486,-0.343990942663,-0.333761038535,-0.325367665327,-0.318423327414,-0.312561644544,-0.307451934614,-0.302814340205,-0.298434595005,-0.294177192562,-0.289995480595,-0.285937146184,-0.282143733251,-0.278843283082,-0.276335878339,-0.274972728515,-0.2751303126,-0.277181838312,-0.281468719783,-0.288274823683,-0.297805853718,-0.310175515267,-0.325399156932,-0.343394616294,-0.36398916318,-0.386930873118,-0.411902519234,-0.438536141474,-0.466426755088,-0.495144112723,-0.524241922619,-0.5532643828,-0.581750249851,-0.609234913347,-0.635251078657,-0.65932870565,-0.680994816884,-0.699773719217,-0.715188081029,-0.72676120769,-0.7340207505,-0.736503992801,-0.733764760794,-0.725381924606,-0.710969362401,-0.690187177011,-0.662753856118,-0.628458979126,-0.587175974596,-0.538874354304,-0.483630774035,-0.421638235892,-0.353212731726,-0.278796673263,-0.198958534265,-0.114388281532,-0.0258883542484,0.0656398045867,0.159213411381,0.253789668537,0.348289984952,0.441626099124,0.532726978314,0.62056528363,0.704182219808,0.782709675146,0.855388747696,0.921583974215,0.980792864619,1.03265061218,1.07693013583,1.11353783258,1.14250562537,1.1639800102,1.1782089057,1.18552712304,1.1863412942,1.18111506554,1.17035539547,1.15460084783,1.13441300033,1.11037246399,1.08308164147,1.05317679623,1.0213508283,0.988380957364,0.955135956907,0.922511747847,0.891261034558,0.861790176345,0.834079805182,0.807779832956,0.782374073447,0.757307709535,0.732051467562,0.706121797513,0.679079799585,0.650522747898,0.620074573971,0.587377784835,0.552087494381,0.513867667719,0.472389441921,0.427331439542,0.378381991953,0.325243293546,0.267637508143,0.205314907084,0.13806408021,0.0657242480368,-0.0118003876708,-0.0945244236578,-0.182363489186,-0.275115473645,-0.372441501029,-0.473847716458,-0.578669173609,-0.686057444175,-0.794973685496,-0.904189093544,-1.01229449253,-1.11772064439,-1.218770227,-1.31366174696,-1.40058456852,-1.47776313076,-1.54352723405,-1.5963841825,-1.63508791706,-1.65869983333,-0.0338696321183,1.64064927511e-15,4.48353605755e-16,-0.418895742248,2.80383477963e-20,
end of mathHomotopia!
