16-08-2013

 Hasierako egoera
9.940000000000000000000000000000e-01 0.000000000000000000000000000000e+00 0.000000000000000000000000000000e+00 0.000000000000000000000000000000e+00 -1.007585106379082522405378622240e+00 0.000000000000000000000000000000e+00 0.000000000000000000000000000000e+00 

*************************************************************
*************************************************************

 Amaiera : tol - order - ukop- endT
9.99999999999999907537452227896e-22 25 193 1.706521656015796255889172062490e+01 

9.939999999999999999967153633609e-01 -9.093400200857105664315015014869e-21 -1.477564136986815917645214079675e-18 -1.007585106379082522919978497424e+00 0.000000000000000000000000000000e+00 
 Errorea .
3.284636639124011652515751665862e-21 9.093400200857105664315015014869e-21 1.477564136986815917645214079675e-18 5.145998751843124623428618222028e-19 0.000000000000000000000000000000e+00 
real	0m8.227s
user	0m8.213s
sys	0m0.000s

******************************************************************************
  Amaiera : tol - order - ukop- endT
1.00000000000000004859677432657e-22 27 193 1.706521656015796255889172062490e+01 

9.939999999999999999999285411770e-01 -2.006539610804386654427489364409e-22 -3.258994681513758627067407999235e-20 -1.007585106379082522416573623730e+00 0.000000000000000000000000000000e+00 
 Errorea .
7.145882296581545861521547655497e-23 2.006539610804386654427489364409e-22 3.258994681513758627067407999235e-20 1.119500149020112206797101458125e-20 0.000000000000000000000000000000e+00 
real	0m9.348s
user	0m9.325s
sys	0m0.004s

*********************************************************************************
 Amaiera : tol - order - ukop- endT
9.99999999999999960434698014899e-24 28 193 1.706521656015796255889172062490e+01 

9.940000000000000000000095179547e-01 2.833876071122957119130877839041e-23 4.596318385879500485545803134404e-21 -1.007585106379082522403887651368e+00 0.000000000000000000000000000000e+00 
 Errorea .
-9.517954684498806610342072793317e-24 -2.833876071122957119130877839041e-23 -4.596318385879500485545803134404e-21 -1.490970872085408716104366247763e-21 0.000000000000000000000000000000e+00 
real	0m10.004s
user	0m9.985s
sys	0m0.000s

**************************************************************************************
  Amaiera : tol - order - ukop- endT
9.99999999999999923700499551703e-25 29 193 1.706521656015796255889172062490e+01 

9.939999999999999999999987185276e-01 -3.579665589362089578336133750907e-24 -5.814663353319803077415029075383e-22 -1.007585106379082522405579392106e+00 0.000000000000000000000000000000e+00 
 Errorea .
1.281472372879230544523240972136e-24 3.579665589362089578336133750907e-24 5.814663353319803077415029075383e-22 2.007698663681880587286554810395e-22 0.000000000000000000000000000000e+00 
real	0m10.601s
user	0m10.585s
sys	0m0.000s

****************************************************************************************
 Amaiera : tol - order - ukop- endT
1.00000000000000003849486974919e-25 30 194 1.706521656015796255889172062490e+01 

9.940000000000000000000001839852e-01 5.504529288219969809477455848323e-25 8.926212954333747512761237098607e-23 -1.007585106379082522405349801171e+00 0.000000000000000000000000000000e+00 
 Errorea .
-1.839852300489556515507456056613e-25 -5.504529288219969809477455848323e-25 -8.926212954333747512761237098607e-23 -2.882106936124369332463407639565e-23 0.000000000000000000000000000000e+00 
real	0m11.320s
user	0m11.301s
sys	0m0.000s

*************************************************************************************
 Amaiera : tol - order - ukop- endT
1.00000000000000003849486974919e-26 31 194 1.706521656015796255889172062490e+01 

9.939999999999999999999999735076e-01 -7.552354522048745337963706134386e-26 -1.225987913063253401496738513668e-23 -1.007585106379082522405382772618e+00 0.000000000000000000000000000000e+00 
 Errorea .
2.649238357277128189184410797832e-26 7.552354522048745337963706134386e-26 1.225987913063253401496738513668e-23 4.150377834537183787739614889119e-24 0.000000000000000000000000000000e+00 
real	0m12.040s
user	0m12.013s
sys	0m0.004s

*************************************************************************************
 Amaiera : tol - order - ukop- endT
1.00000000000000003849486974919e-27 32 194 1.706521656015796255889172062490e+01 

9.940000000000000000000000035622e-01 1.038922172252724406611021929045e-26 1.686195381839274668584795694543e-24 -1.007585106379082522405378064232e+00 0.000000000000000000000000000000e+00 
 Errorea .
-3.562156884307877159729228348699e-27 -1.038922172252724406611021929045e-26 -1.686195381839274668584795694543e-24 -5.580084157240536731881605863315e-25 0.000000000000000000000000000000e+00 
real	0m12.783s
user	0m12.761s
sys	0m0.000s

***********************************************************************************
 Amaiera : tol - order - ukop- endT
9.99999999999999971232543461601e-29 33 194 1.706521656015796255889172062490e+01 

9.939999999999999999999999995433e-01 -1.406067962702181078945406886494e-27 -2.276480502182888737218193206113e-25 -1.007585106379082522405378693793e+00 0.000000000000000000000000000000e+00 
 Errorea .
4.567134862680336004050121645222e-28 1.406067962702181078945406886494e-27 2.276480502182888737218193206113e-25 7.155272861360185809328029176108e-26 0.000000000000000000000000000000e+00 
real	0m13.469s
user	0m13.445s
sys	0m0.000s

***********************************************************************************
 Amaiera : tol - order - ukop- endT
9.99999999999999943206574175104e-30 35 195 1.706521656015796255889172062490e+01 

9.940000000000000000000000000024e-01 -1.134488909940180463137638548852e-28 -1.772957879816830985523961265473e-26 -1.007585106379082522405378621870e+00 0.000000000000000000000000000000e+00 
 Errorea .
-2.360419739840996261505406566432e-30 1.134488909940180463137638548852e-28 1.772957879816830985523961265473e-26 -3.699387866937223018097220223411e-28 0.000000000000000000000000000000e+00 
real	0m15.140s
user	0m15.113s
sys	0m0.000s

*************************************************************************************
  Amaiera : tol - order - ukop- endT
1.00000000000000008333642060759e-30 36 195 1.706521656015796255889172062490e+01 

9.940000000000000000000000000291e-01 -2.633449649796883467972290339457e-29 -3.645947162840365997646622947460e-27 -1.007585106379082522405378617674e+00 0.000000000000000000000000000000e+00 
 Errorea .
-2.913854968660112356239572388013e-29 2.633449649796883467972290339457e-29 3.645947162840365997646622947460e-27 -4.566432283436623540410926824469e-27 0.000000000000000000000000000000e+00 
real	0m15.911s
user	0m15.881s
sys	0m0.004s

**********************************************************************************
**********************************************************************************

order= 25,26,28,29,30,31,32,33,35,36
urratsak= 193,193,193,193,194,194,194,194,195,195

Errorea: 
3.28e-21, 9.09e-21, 1.47e-18, 5.148e-19 
7.14e-23 ,2.00e-22 ,3.25e-20, 1.11e-20 
-9.51e-24, -2.83e-23, -4.59e-21, -1.49e-21
1.28e-24, 3.57e-24, 5.81e-22, 2.00e-22 
-1.83e-25, -5.50e-25, -8.92e-23, -2.88e-23 
2.64e-26, 7.55e-26,  1.22e-23, 4.15e-24 
-3.56e-27, -1.03e-26, -1.68e-24, -5.58e-25 
4.56e-28 ,1.40e-27, 2.27e-25, 7.15e-26 
-2.36e-30, 1.13e-28, 1.77e-26, -3.69e-28 
-2.91e-29, 2.6e-29,  3.64e-27, -4.56e-27 


user	8.213,9.325,9.985,10.585,11.301,12.013,12.761,13.445,15.113,15.881



